{
  "extends": ["tslint:latest", "tslint-config-prettier"],
  "rules": {
    "adjacent-overload-signatures": true,
    "class-name": true,
    "no-angle-bracket-type-assertion": true,
    "member-access": false,
    "curly": true,
    "eofline": true,
    "indent": [true, "spaces"],
    "interface-name": [true, "never-prefix"],
    "no-namespace": true,
    "no-reference": true,
    "no-unsafe-finally": true,
    "no-arg": true,
    "no-consecutive-blank-lines": true,
    "no-conditional-assignment": true,
    "no-construct": true,
    "no-duplicate-variable": true,
    "no-empty": true,
    "no-eval": true,
    "no-shadowed-variable": false,
    "no-string-literal": true,
    "radix": true,
    "triple-equals": [true, "allow-null-check"],
    "variable-name": [
      true,
      "ban-keywords",
      "check-format",
      "allow-leading-underscore",
      "allow-pascal-case"
    ],
    "prefer-for-of": true,
    "prefer-const": true,
    "no-var-keyword": true,
    "use-isnan": true,
    "no-boolean-literal-compare": true,
    "no-floating-promises": true,
    "no-invalid-template-strings": true,
    "no-object-literal-type-assertion": true,
    "no-sparse-arrays": true,
    "no-this-assignment": true,
    "no-unbound-method": true,
    "no-unnecessary-callback-wrapper": true,
    "no-unnecessary-initializer": true,
    "no-unnecessary-qualifier": true,
    "no-unnecessary-type-assertion": true,
    "no-for-in-array": true,
    "strict-boolean-expressions": true,
    "arrow-return-shorthand": true,
    "no-implicit-dependencies": false,
    "no-console": false,
    "await-promise": true,
    "binary-expression-operand-order": true,
    "callable-types": true,
    "new-parens": true,
    "prefer-conditional-expression": true,
    "prefer-object-spread": true,
    "prefer-template": true,
    "type-literal-delimiter": false,
    "trailing-comma": true,
    "strict-type-predicates": true,
    "restrict-plus-operands": true,
    "no-non-null-assertion": true,
    "prefer-method-signature": true,
    "return-undefined": true,
    "import-blacklist": [true, "rxjs"],
    "ordered-imports": false,
    "max-classes-per-file": false
  },
  "defaultSeverity": "error"
}
